alpha	time
1	5.896
0.99	5.719
0.98	1.965
0.97	1.659
0.96	2.207
0.95	1.986
0.94	3.35
0.93	1.667
0.92	1.395
0.91	1.558
0.9	2.572
0.89	1.642
0.88	2.107
0.87	2.182
0.86	1.595
0.85	1.357
0.84	2.034
0.83	2.354
0.82	2.098
0.81	2.816
0.8	3.162
0.79	2.321
0.78	1.918
0.77	1.54
0.76	1.616
0.75	2.38
0.74	1.472
0.73	1.789
0.72	1.756
0.71	1.403
0.7	2.877
0.69	1.364
0.68	1.562
0.67	1.702
0.66	1.371
0.65	1.881
0.64	1.492
0.63	1.687
0.62	1.656
0.61	1.438
0.6	1.64
0.59	1.414
0.58	4.706
0.57	1.62
0.56	2.367
0.55	1.316
0.54	1.988
0.53	1.309
0.52	1.531
0.51	1.403
0.5	1.431
0.49	1.465
0.48	1.501
0.47	1.609
0.46	1.399
0.45	1.489
0.44	1.342
0.43	1.604
0.42	2.128
0.41	1.618
0.4	1.595
0.39	1.385
0.38	1.541
0.37	1.38
0.36	1.667
0.35	1.429
0.34	1.682
0.33	1.284
0.32	2.441
0.31	1.524
0.3	1.416
0.29	1.495
0.28	1.219
0.27	1.489
0.26	1.105
0.25	1.593
0.24	1.328
0.23	1.9
0.22	1.648
0.21	1.099
0.2	1.45
0.19	1.284
0.18	1.374
0.17	1.382
0.16	1.103
0.15	1.34
0.14	1.372
0.13	1.068
0.12	1.298
0.11	0.948
0.1	1.161
0.09	1.323
0.08	0.933
0.07	1.594
0.06	1.231
0.05	0.952
0.04	1.081
0.03	0.951
0.02	0.975
0.01	1.26