alpha	time
1	2.131
0.99	0.528
0.98	0.357
0.97	0.339
0.96	0.281
0.95	0.251
0.94	0.259
0.93	0.412
0.92	0.411
0.91	0.288
0.9	0.196
0.89	0.198
0.88	0.204
0.87	0.211
0.86	0.185
0.85	0.162
0.84	0.119
0.83	0.125
0.82	0.135
0.81	0.109
0.8	0.145
0.79	0.257
0.78	0.136
0.77	0.106
0.76	0.121
0.75	0.099
0.74	0.096
0.73	0.097
0.72	0.082
0.71	0.11
0.7	0.095
0.69	0.084
0.68	0.084
0.67	0.103
0.66	0.082
0.65	0.088
0.64	0.09
0.63	0.092
0.62	0.089
0.61	0.095
0.6	0.098
0.59	0.097
0.58	0.117
0.57	0.094
0.56	0.087
0.55	0.095
0.54	0.104
0.53	0.119
0.52	0.074
0.51	0.087
0.5	0.072
0.49	0.082
0.48	0.147
0.47	0.091
0.46	0.074
0.45	0.07
0.44	0.078
0.43	0.08
0.42	0.066
0.41	0.078
0.4	0.07
0.39	0.07
0.38	0.07
0.37	0.071
0.36	0.071
0.35	0.073
0.34	0.129
0.33	0.073
0.32	0.066
0.31	0.075
0.3	0.066
0.29	0.071
0.28	0.077
0.27	0.071
0.26	0.067
0.25	0.063
0.24	0.064
0.23	0.069
0.22	0.067
0.21	0.069
0.2	0.063
0.19	0.065
0.18	0.103
0.17	0.078
0.16	0.073
0.15	0.067
0.14	0.063
0.13	0.073
0.12	0.063
0.11	0.062
0.1	0.062
0.09	0.065
0.08	0.061
0.07	0.063
0.06	0.064
0.05	0.061
0.04	0.06
0.03	0.059
0.02	0.06
0.01	0.061