bin size	bins acc	KEX Acc
5	0.832822086	0.859111792
10	0.828967643	0.859111792
15	0.823348694	0.859111792
20	0.817484663	0.859111792
25	0.814132104	0.859111792
30	0.838709677	0.859111792
35	0.834355828	0.859111792
40	0.843317972	0.859111792
45	0.830508475	0.859111792
50	0.834101382	0.859111792
55	0.844854071	0.859111792
60	0.834101382	0.859111792
65	0.812883436	0.859111792
70	0.844854071	0.859111792
75	0.824884793	0.859111792
80	0.823348694	0.859111792
85	0.829493088	0.859111792
90	0.845092025	0.859111792
95	0.836671803	0.859111792
100	0.825617284	0.859111792
100	0.832565284	0.859111792
105	0.847457627	0.859111792
111	0.843797856	0.859111792
116	0.834101382	0.859111792
121	0.844854071	0.859111792
126	0.850998464	0.859111792
132	0.856702619	0.859111792
137	0.84992343	0.859111792
142	0.832049307	0.859111792
147	0.832307692	0.859111792
153	0.822530864	0.859111792
158	0.821538462	0.859111792
163	0.834101382	0.859111792
168	0.837962963	0.859111792
174	0.84	0.859111792
179	0.822804314	0.859111792
184	0.843076923	0.859111792
189	0.832565284	0.859111792
195	0.844615385	0.859111792
200	0.835889571	0.859111792
