bin size	bins acc	KEX Acc
1	0.935251799	0.94
6	0.95890411	0.94
11	0.96	0.94
16	0.932432432	0.94
21	0.946308725	0.94
27	0.946308725	0.94
32	0.912162162	0.94
37	0.959731544	0.94
42	0.939189189	0.94
47	0.913333333	0.94
52	0.926174497	0.94
57	0.924137931	0.94
62	0.919463087	0.94
67	0.864864865	0.94
72	0.844594595	0.94
78	0.797297297	0.94
83	0.8	0.94
88	0.711409396	0.94
93	0.686666667	0.94
98	0.724832215	0.94
103	0.693333333	0.94
108	0.627586207	0.94
113	0.631944444	0.94
118	0.533333333	0.94
123	0.754098361	0.94
129	0.88372093	0.94
134	0.971428571	0.94
139	0.967741935	0.94
144	0.928571429	0.94
149	1	0.94
154	0	0.94
159	0	0.94
164	0	0.94
169	0	0.94
174	0	0.94
180	0	0.94
185	0	0.94
190	0	0.94
195	0	0.94
200	0	0.94
