label,a1,a2,a3,a4,a5
c1,2,4.5,6,8.5,11.5
c2,2,4,6.5,8.5,10
c2,3.5,4.5,7,8.5,11
c2,3.5,4.75,7,8.5,11.5
c2,3.5,5,7,9,11.5
c3,2.5,4.75,6.5,8,10
c3,2.5,5.5,7.5,8,10
c3,3,5.5,7.5,8,10
c3,3,5.5,7.5,9.5,10.5
