a1,a2,a3,a4,label
[4.29 - 5.45],[2.95 - 4.40],[0.99 - 2.45],[0.09 - 0.80],Iris-setosa
[4.29 - 5.45],[2.95 - 4.40],[0.99 - 2.45],[0.09 - 0.80],Iris-setosa
[4.29 - 5.45],[2.95 - 4.40],[0.99 - 2.45],[0.09 - 0.80],Iris-setosa
[4.29 - 5.45],[2.95 - 4.40],[0.99 - 2.45],[0.09 - 0.80],Iris-setosa
[4.29 - 5.45],[2.95 - 4.40],[0.99 - 2.45],[0.09 - 0.80],Iris-setosa
[4.29 - 5.45],[2.95 - 4.40],[0.99 - 2.45],[0.09 - 0.80],Iris-setosa
[4.29 - 5.45],[2.95 - 4.40],[0.99 - 2.45],[0.09 - 0.80],Iris-setosa
[4.29 - 5.45],[2.95 - 4.40],[0.99 - 2.45],[0.09 - 0.80],Iris-setosa
[4.29 - 5.45],[2.85 - 2.95],[0.99 - 2.45],[0.09 - 0.80],Iris-setosa
[4.29 - 5.45],[2.95 - 4.40],[0.99 - 2.45],[0.09 - 0.80],Iris-setosa
[4.29 - 5.45],[2.95 - 4.40],[0.99 - 2.45],[0.09 - 0.80],Iris-setosa
[4.29 - 5.45],[2.95 - 4.40],[0.99 - 2.45],[0.09 - 0.80],Iris-setosa
[4.29 - 5.45],[2.95 - 4.40],[0.99 - 2.45],[0.09 - 0.80],Iris-setosa
[4.29 - 5.45],[2.95 - 4.40],[0.99 - 2.45],[0.09 - 0.80],Iris-setosa
[5.45 - 6.25],[2.95 - 4.40],[0.99 - 2.45],[0.09 - 0.80],Iris-setosa
[5.45 - 6.25],[2.95 - 4.40],[0.99 - 2.45],[0.09 - 0.80],Iris-setosa
[4.29 - 5.45],[2.95 - 4.40],[0.99 - 2.45],[0.09 - 0.80],Iris-setosa
[4.29 - 5.45],[2.95 - 4.40],[0.99 - 2.45],[0.09 - 0.80],Iris-setosa
[5.45 - 6.25],[2.95 - 4.40],[0.99 - 2.45],[0.09 - 0.80],Iris-setosa
[4.29 - 5.45],[2.95 - 4.40],[0.99 - 2.45],[0.09 - 0.80],Iris-setosa
[4.29 - 5.45],[2.95 - 4.40],[0.99 - 2.45],[0.09 - 0.80],Iris-setosa
[4.29 - 5.45],[2.95 - 4.40],[0.99 - 2.45],[0.09 - 0.80],Iris-setosa
[4.29 - 5.45],[2.95 - 4.40],[0.99 - 2.45],[0.09 - 0.80],Iris-setosa
[4.29 - 5.45],[2.95 - 4.40],[0.99 - 2.45],[0.09 - 0.80],Iris-setosa
[4.29 - 5.45],[2.95 - 4.40],[0.99 - 2.45],[0.09 - 0.80],Iris-setosa
[4.29 - 5.45],[2.95 - 4.40],[0.99 - 2.45],[0.09 - 0.80],Iris-setosa
[4.29 - 5.45],[2.95 - 4.40],[0.99 - 2.45],[0.09 - 0.80],Iris-setosa
[4.29 - 5.45],[2.95 - 4.40],[0.99 - 2.45],[0.09 - 0.80],Iris-setosa
[4.29 - 5.45],[2.95 - 4.40],[0.99 - 2.45],[0.09 - 0.80],Iris-setosa
[4.29 - 5.45],[2.95 - 4.40],[0.99 - 2.45],[0.09 - 0.80],Iris-setosa
[4.29 - 5.45],[2.95 - 4.40],[0.99 - 2.45],[0.09 - 0.80],Iris-setosa
[4.29 - 5.45],[2.95 - 4.40],[0.99 - 2.45],[0.09 - 0.80],Iris-setosa
[4.29 - 5.45],[2.95 - 4.40],[0.99 - 2.45],[0.09 - 0.80],Iris-setosa
[5.45 - 6.25],[2.95 - 4.40],[0.99 - 2.45],[0.09 - 0.80],Iris-setosa
[4.29 - 5.45],[2.95 - 4.40],[0.99 - 2.45],[0.09 - 0.80],Iris-setosa
[4.29 - 5.45],[2.95 - 4.40],[0.99 - 2.45],[0.09 - 0.80],Iris-setosa
[5.45 - 6.25],[2.95 - 4.40],[0.99 - 2.45],[0.09 - 0.80],Iris-setosa
[4.29 - 5.45],[2.95 - 4.40],[0.99 - 2.45],[0.09 - 0.80],Iris-setosa
[4.29 - 5.45],[2.95 - 4.40],[0.99 - 2.45],[0.09 - 0.80],Iris-setosa
[4.29 - 5.45],[2.95 - 4.40],[0.99 - 2.45],[0.09 - 0.80],Iris-setosa
[4.29 - 5.45],[2.95 - 4.40],[0.99 - 2.45],[0.09 - 0.80],Iris-setosa
[4.29 - 5.45],[1.99 - 2.75],[0.99 - 2.45],[0.09 - 0.80],Iris-setosa
[4.29 - 5.45],[2.95 - 4.40],[0.99 - 2.45],[0.09 - 0.80],Iris-setosa
[4.29 - 5.45],[2.95 - 4.40],[0.99 - 2.45],[0.09 - 0.80],Iris-setosa
[4.29 - 5.45],[2.95 - 4.40],[0.99 - 2.45],[0.09 - 0.80],Iris-setosa
[4.29 - 5.45],[2.95 - 4.40],[0.99 - 2.45],[0.09 - 0.80],Iris-setosa
[4.29 - 5.45],[2.95 - 4.40],[0.99 - 2.45],[0.09 - 0.80],Iris-setosa
[4.29 - 5.45],[2.95 - 4.40],[0.99 - 2.45],[0.09 - 0.80],Iris-setosa
[4.29 - 5.45],[2.95 - 4.40],[0.99 - 2.45],[0.09 - 0.80],Iris-setosa
[4.29 - 5.45],[2.95 - 4.40],[0.99 - 2.45],[0.09 - 0.80],Iris-setosa
[6.55 - 7.05],[2.95 - 4.40],[2.45 - 4.75],[0.80 - 1.75],Iris-versicolor
[6.25 - 6.55],[2.95 - 4.40],[2.45 - 4.75],[0.80 - 1.75],Iris-versicolor
[6.55 - 7.05],[2.95 - 4.40],[4.75 - 6.90],[0.80 - 1.75],Iris-versicolor
[5.45 - 6.25],[1.99 - 2.75],[2.45 - 4.75],[0.80 - 1.75],Iris-versicolor
[6.25 - 6.55],[2.75 - 2.85],[2.45 - 4.75],[0.80 - 1.75],Iris-versicolor
[5.45 - 6.25],[2.75 - 2.85],[2.45 - 4.75],[0.80 - 1.75],Iris-versicolor
[6.25 - 6.55],[2.95 - 4.40],[2.45 - 4.75],[0.80 - 1.75],Iris-versicolor
[4.29 - 5.45],[1.99 - 2.75],[2.45 - 4.75],[0.80 - 1.75],Iris-versicolor
[6.55 - 7.05],[2.85 - 2.95],[2.45 - 4.75],[0.80 - 1.75],Iris-versicolor
[4.29 - 5.45],[1.99 - 2.75],[2.45 - 4.75],[0.80 - 1.75],Iris-versicolor
[4.29 - 5.45],[1.99 - 2.75],[2.45 - 4.75],[0.80 - 1.75],Iris-versicolor
[5.45 - 6.25],[2.95 - 4.40],[2.45 - 4.75],[0.80 - 1.75],Iris-versicolor
[5.45 - 6.25],[1.99 - 2.75],[2.45 - 4.75],[0.80 - 1.75],Iris-versicolor
[5.45 - 6.25],[2.85 - 2.95],[2.45 - 4.75],[0.80 - 1.75],Iris-versicolor
[5.45 - 6.25],[2.85 - 2.95],[2.45 - 4.75],[0.80 - 1.75],Iris-versicolor
[6.55 - 7.05],[2.95 - 4.40],[2.45 - 4.75],[0.80 - 1.75],Iris-versicolor
[5.45 - 6.25],[2.95 - 4.40],[2.45 - 4.75],[0.80 - 1.75],Iris-versicolor
[5.45 - 6.25],[1.99 - 2.75],[2.45 - 4.75],[0.80 - 1.75],Iris-versicolor
[5.45 - 6.25],[1.99 - 2.75],[2.45 - 4.75],[0.80 - 1.75],Iris-versicolor
[5.45 - 6.25],[1.99 - 2.75],[2.45 - 4.75],[0.80 - 1.75],Iris-versicolor
[5.45 - 6.25],[2.95 - 4.40],[4.75 - 6.90],[1.75 - 2.50],Iris-versicolor
[5.45 - 6.25],[2.75 - 2.85],[2.45 - 4.75],[0.80 - 1.75],Iris-versicolor
[6.25 - 6.55],[1.99 - 2.75],[4.75 - 6.90],[0.80 - 1.75],Iris-versicolor
[5.45 - 6.25],[2.75 - 2.85],[2.45 - 4.75],[0.80 - 1.75],Iris-versicolor
[6.25 - 6.55],[2.85 - 2.95],[2.45 - 4.75],[0.80 - 1.75],Iris-versicolor
[6.55 - 7.05],[2.95 - 4.40],[2.45 - 4.75],[0.80 - 1.75],Iris-versicolor
[6.55 - 7.05],[2.75 - 2.85],[4.75 - 6.90],[0.80 - 1.75],Iris-versicolor
[6.55 - 7.05],[2.95 - 4.40],[4.75 - 6.90],[0.80 - 1.75],Iris-versicolor
[5.45 - 6.25],[2.85 - 2.95],[2.45 - 4.75],[0.80 - 1.75],Iris-versicolor
[5.45 - 6.25],[1.99 - 2.75],[2.45 - 4.75],[0.80 - 1.75],Iris-versicolor
[5.45 - 6.25],[1.99 - 2.75],[2.45 - 4.75],[0.80 - 1.75],Iris-versicolor
[5.45 - 6.25],[1.99 - 2.75],[2.45 - 4.75],[0.80 - 1.75],Iris-versicolor
[5.45 - 6.25],[1.99 - 2.75],[2.45 - 4.75],[0.80 - 1.75],Iris-versicolor
[5.45 - 6.25],[1.99 - 2.75],[4.75 - 6.90],[0.80 - 1.75],Iris-versicolor
[4.29 - 5.45],[2.95 - 4.40],[2.45 - 4.75],[0.80 - 1.75],Iris-versicolor
[5.45 - 6.25],[2.95 - 4.40],[2.45 - 4.75],[0.80 - 1.75],Iris-versicolor
[6.55 - 7.05],[2.95 - 4.40],[2.45 - 4.75],[0.80 - 1.75],Iris-versicolor
[6.25 - 6.55],[1.99 - 2.75],[2.45 - 4.75],[0.80 - 1.75],Iris-versicolor
[5.45 - 6.25],[2.95 - 4.40],[2.45 - 4.75],[0.80 - 1.75],Iris-versicolor
[5.45 - 6.25],[1.99 - 2.75],[2.45 - 4.75],[0.80 - 1.75],Iris-versicolor
[5.45 - 6.25],[1.99 - 2.75],[2.45 - 4.75],[0.80 - 1.75],Iris-versicolor
[5.45 - 6.25],[2.95 - 4.40],[2.45 - 4.75],[0.80 - 1.75],Iris-versicolor
[5.45 - 6.25],[1.99 - 2.75],[2.45 - 4.75],[0.80 - 1.75],Iris-versicolor
[4.29 - 5.45],[1.99 - 2.75],[2.45 - 4.75],[0.80 - 1.75],Iris-versicolor
[5.45 - 6.25],[1.99 - 2.75],[2.45 - 4.75],[0.80 - 1.75],Iris-versicolor
[5.45 - 6.25],[2.95 - 4.40],[2.45 - 4.75],[0.80 - 1.75],Iris-versicolor
[5.45 - 6.25],[2.85 - 2.95],[2.45 - 4.75],[0.80 - 1.75],Iris-versicolor
[5.45 - 6.25],[2.85 - 2.95],[2.45 - 4.75],[0.80 - 1.75],Iris-versicolor
[4.29 - 5.45],[1.99 - 2.75],[2.45 - 4.75],[0.80 - 1.75],Iris-versicolor
[5.45 - 6.25],[2.75 - 2.85],[2.45 - 4.75],[0.80 - 1.75],Iris-versicolor
[6.25 - 6.55],[2.95 - 4.40],[4.75 - 6.90],[1.75 - 2.50],Iris-virginica
[5.45 - 6.25],[1.99 - 2.75],[4.75 - 6.90],[1.75 - 2.50],Iris-virginica
[7.05 - 7.90],[2.95 - 4.40],[4.75 - 6.90],[1.75 - 2.50],Iris-virginica
[6.25 - 6.55],[2.85 - 2.95],[4.75 - 6.90],[1.75 - 2.50],Iris-virginica
[6.25 - 6.55],[2.95 - 4.40],[4.75 - 6.90],[1.75 - 2.50],Iris-virginica
[7.05 - 7.90],[2.95 - 4.40],[4.75 - 6.90],[1.75 - 2.50],Iris-virginica
[4.29 - 5.45],[1.99 - 2.75],[2.45 - 4.75],[0.80 - 1.75],Iris-virginica
[7.05 - 7.90],[2.85 - 2.95],[4.75 - 6.90],[1.75 - 2.50],Iris-virginica
[6.55 - 7.05],[1.99 - 2.75],[4.75 - 6.90],[1.75 - 2.50],Iris-virginica
[7.05 - 7.90],[2.95 - 4.40],[4.75 - 6.90],[1.75 - 2.50],Iris-virginica
[6.25 - 6.55],[2.95 - 4.40],[4.75 - 6.90],[1.75 - 2.50],Iris-virginica
[6.25 - 6.55],[1.99 - 2.75],[4.75 - 6.90],[1.75 - 2.50],Iris-virginica
[6.55 - 7.05],[2.95 - 4.40],[4.75 - 6.90],[1.75 - 2.50],Iris-virginica
[5.45 - 6.25],[1.99 - 2.75],[4.75 - 6.90],[1.75 - 2.50],Iris-virginica
[5.45 - 6.25],[2.75 - 2.85],[4.75 - 6.90],[1.75 - 2.50],Iris-virginica
[6.25 - 6.55],[2.95 - 4.40],[4.75 - 6.90],[1.75 - 2.50],Iris-virginica
[6.25 - 6.55],[2.95 - 4.40],[4.75 - 6.90],[1.75 - 2.50],Iris-virginica
[7.05 - 7.90],[2.95 - 4.40],[4.75 - 6.90],[1.75 - 2.50],Iris-virginica
[7.05 - 7.90],[1.99 - 2.75],[4.75 - 6.90],[1.75 - 2.50],Iris-virginica
[5.45 - 6.25],[1.99 - 2.75],[4.75 - 6.90],[0.80 - 1.75],Iris-virginica
[6.55 - 7.05],[2.95 - 4.40],[4.75 - 6.90],[1.75 - 2.50],Iris-virginica
[5.45 - 6.25],[2.75 - 2.85],[4.75 - 6.90],[1.75 - 2.50],Iris-virginica
[7.05 - 7.90],[2.75 - 2.85],[4.75 - 6.90],[1.75 - 2.50],Iris-virginica
[6.25 - 6.55],[1.99 - 2.75],[4.75 - 6.90],[1.75 - 2.50],Iris-virginica
[6.55 - 7.05],[2.95 - 4.40],[4.75 - 6.90],[1.75 - 2.50],Iris-virginica
[7.05 - 7.90],[2.95 - 4.40],[4.75 - 6.90],[1.75 - 2.50],Iris-virginica
[5.45 - 6.25],[2.75 - 2.85],[4.75 - 6.90],[1.75 - 2.50],Iris-virginica
[5.45 - 6.25],[2.95 - 4.40],[4.75 - 6.90],[1.75 - 2.50],Iris-virginica
[6.25 - 6.55],[2.75 - 2.85],[4.75 - 6.90],[1.75 - 2.50],Iris-virginica
[7.05 - 7.90],[2.95 - 4.40],[4.75 - 6.90],[0.80 - 1.75],Iris-virginica
[7.05 - 7.90],[2.75 - 2.85],[4.75 - 6.90],[1.75 - 2.50],Iris-virginica
[7.05 - 7.90],[2.95 - 4.40],[4.75 - 6.90],[1.75 - 2.50],Iris-virginica
[6.25 - 6.55],[2.75 - 2.85],[4.75 - 6.90],[1.75 - 2.50],Iris-virginica
[6.25 - 6.55],[2.75 - 2.85],[4.75 - 6.90],[0.80 - 1.75],Iris-virginica
[5.45 - 6.25],[1.99 - 2.75],[4.75 - 6.90],[0.80 - 1.75],Iris-virginica
[7.05 - 7.90],[2.95 - 4.40],[4.75 - 6.90],[1.75 - 2.50],Iris-virginica
[6.25 - 6.55],[2.95 - 4.40],[4.75 - 6.90],[1.75 - 2.50],Iris-virginica
[6.25 - 6.55],[2.95 - 4.40],[4.75 - 6.90],[1.75 - 2.50],Iris-virginica
[5.45 - 6.25],[2.95 - 4.40],[4.75 - 6.90],[1.75 - 2.50],Iris-virginica
[6.55 - 7.05],[2.95 - 4.40],[4.75 - 6.90],[1.75 - 2.50],Iris-virginica
[6.55 - 7.05],[2.95 - 4.40],[4.75 - 6.90],[1.75 - 2.50],Iris-virginica
[6.55 - 7.05],[2.95 - 4.40],[4.75 - 6.90],[1.75 - 2.50],Iris-virginica
[5.45 - 6.25],[1.99 - 2.75],[4.75 - 6.90],[1.75 - 2.50],Iris-virginica
[6.55 - 7.05],[2.95 - 4.40],[4.75 - 6.90],[1.75 - 2.50],Iris-virginica
[6.55 - 7.05],[2.95 - 4.40],[4.75 - 6.90],[1.75 - 2.50],Iris-virginica
[6.55 - 7.05],[2.95 - 4.40],[4.75 - 6.90],[1.75 - 2.50],Iris-virginica
[6.25 - 6.55],[1.99 - 2.75],[4.75 - 6.90],[1.75 - 2.50],Iris-virginica
[6.25 - 6.55],[2.95 - 4.40],[4.75 - 6.90],[1.75 - 2.50],Iris-virginica
[5.45 - 6.25],[2.95 - 4.40],[4.75 - 6.90],[1.75 - 2.50],Iris-virginica
[5.45 - 6.25],[2.95 - 4.40],[4.75 - 6.90],[1.75 - 2.50],Iris-virginica
