\relax 
\providecommand\hyper@newdestlabel[2]{}
\@writefile{toc}{\defcounter {refsection}{0}\relax }\@writefile{toc}{\contentsline {chapter}{\numberline {2}Algoritmus Knowledge Explorer}{23}{chapter.2}\protected@file@percent }
\@writefile{lof}{\defcounter {refsection}{0}\relax }\@writefile{lof}{\addvspace {10\p@ }}
\@writefile{lot}{\defcounter {refsection}{0}\relax }\@writefile{lot}{\addvspace {10\p@ }}
\@writefile{loa}{\defcounter {refsection}{0}\relax }\@writefile{loa}{\addvspace {10\p@ }}
\newlabel{chap:kex}{{2}{23}{Algoritmus Knowledge Explorer}{chapter.2}{}}
\@writefile{toc}{\defcounter {refsection}{0}\relax }\@writefile{toc}{\contentsline {section}{\numberline {2.1}Značení}{23}{section.2.1}\protected@file@percent }
\@writefile{toc}{\defcounter {refsection}{0}\relax }\@writefile{toc}{\contentsline {section}{\numberline {2.2}Cíl algoritmu}{24}{section.2.2}\protected@file@percent }
\@writefile{toc}{\defcounter {refsection}{0}\relax }\@writefile{toc}{\contentsline {section}{\numberline {2.3}Popis algoritmu}{25}{section.2.3}\protected@file@percent }
\newlabel{math:chisq}{{2.6}{25}{Popis algoritmu}{equation.2.3.6}{}}
\newlabel{math:newruleweight}{{2.7}{26}{Popis algoritmu}{equation.2.3.7}{}}
\newlabel{math:newruleweightcalc}{{2.8}{26}{Popis algoritmu}{equation.2.3.8}{}}
\@writefile{toc}{\defcounter {refsection}{0}\relax }\@writefile{toc}{\contentsline {subsection}{\numberline {2.3.1}Modifikace pro problém s~více jak 2 cílovými třídami}{26}{subsection.2.3.1}\protected@file@percent }
\newlabel{sub:multiclassproblem}{{2.3.1}{26}{Modifikace pro problém s~více jak 2 cílovými třídami}{subsection.2.3.1}{}}
\newlabel{math:validitytoweight}{{2.10}{26}{Modifikace pro problém s~více jak 2 cílovými třídami}{equation.2.3.10}{}}
\@writefile{loa}{\defcounter {refsection}{0}\relax }\@writefile{loa}{\contentsline {algocf}{\numberline {1}{\ignorespaces Algoritmus Knowledge Explorer\relax }}{27}{algocf.1}\protected@file@percent }
\newlabel{algo:kex}{{1}{27}{Popis algoritmu}{algocf.1}{}}
\@writefile{toc}{\defcounter {refsection}{0}\relax }\@writefile{toc}{\contentsline {section}{\numberline {2.4}Zpracování číselných atributů}{28}{section.2.4}\protected@file@percent }
\@writefile{loa}{\defcounter {refsection}{0}\relax }\@writefile{loa}{\contentsline {algocf}{\numberline {2}{\ignorespaces Algoritmus KEX Discretization\relax }}{30}{algocf.2}\protected@file@percent }
\newlabel{algo:discretization}{{2}{30}{Zpracování číselných atributů}{algocf.2}{}}
\@writefile{toc}{\defcounter {refsection}{0}\relax }\@writefile{toc}{\contentsline {section}{\numberline {2.5}Evaluace}{31}{section.2.5}\protected@file@percent }
\newlabel{sec:evaluace}{{2.5}{31}{Evaluace}{section.2.5}{}}
\@writefile{lot}{\defcounter {refsection}{0}\relax }\@writefile{lot}{\contentsline {table}{\numberline {2.1}{\ignorespaces Matice záměn\relax }}{31}{table.caption.15}\protected@file@percent }
\newlabel{tab:confmatrix}{{2.1}{31}{Matice záměn\relax }{table.caption.15}{}}
\@writefile{lot}{\defcounter {refsection}{0}\relax }\@writefile{lot}{\contentsline {table}{\numberline {2.2}{\ignorespaces Rozšířená matice záměn\relax }}{32}{table.caption.16}\protected@file@percent }
\newlabel{tab:expconfmatrix}{{2.2}{32}{Rozšířená matice záměn\relax }{table.caption.16}{}}
\@setckpt{kap02}{
\setcounter{page}{33}
\setcounter{equation}{13}
\setcounter{enumi}{3}
\setcounter{enumii}{0}
\setcounter{enumiii}{0}
\setcounter{enumiv}{0}
\setcounter{footnote}{2}
\setcounter{mpfootnote}{0}
\setcounter{part}{0}
\setcounter{chapter}{2}
\setcounter{section}{5}
\setcounter{subsection}{0}
\setcounter{subsubsection}{0}
\setcounter{paragraph}{0}
\setcounter{subparagraph}{0}
\setcounter{figure}{0}
\setcounter{table}{2}
\setcounter{Item}{10}
\setcounter{Hfootnote}{2}
\setcounter{bookmark@seq@number}{12}
\setcounter{tabx@nest}{0}
\setcounter{listtotal}{0}
\setcounter{listcount}{0}
\setcounter{liststart}{0}
\setcounter{liststop}{0}
\setcounter{citecount}{0}
\setcounter{citetotal}{0}
\setcounter{multicitecount}{0}
\setcounter{multicitetotal}{0}
\setcounter{instcount}{42}
\setcounter{maxnames}{99}
\setcounter{minnames}{1}
\setcounter{maxitems}{3}
\setcounter{minitems}{1}
\setcounter{citecounter}{0}
\setcounter{maxcitecounter}{0}
\setcounter{savedcitecounter}{0}
\setcounter{uniquelist}{0}
\setcounter{uniquename}{0}
\setcounter{refsection}{0}
\setcounter{refsegment}{0}
\setcounter{maxextratitle}{0}
\setcounter{maxextratitleyear}{0}
\setcounter{maxextraname}{4}
\setcounter{maxextradate}{0}
\setcounter{maxextraalpha}{0}
\setcounter{abbrvpenalty}{50}
\setcounter{highnamepenalty}{50}
\setcounter{lownamepenalty}{25}
\setcounter{maxparens}{3}
\setcounter{parenlevel}{0}
\setcounter{mincomprange}{10}
\setcounter{maxcomprange}{100000}
\setcounter{mincompwidth}{1}
\setcounter{afterword}{0}
\setcounter{savedafterword}{0}
\setcounter{annotator}{0}
\setcounter{savedannotator}{0}
\setcounter{author}{0}
\setcounter{savedauthor}{0}
\setcounter{bookauthor}{0}
\setcounter{savedbookauthor}{0}
\setcounter{commentator}{0}
\setcounter{savedcommentator}{0}
\setcounter{editor}{0}
\setcounter{savededitor}{0}
\setcounter{editora}{0}
\setcounter{savededitora}{0}
\setcounter{editorb}{0}
\setcounter{savededitorb}{0}
\setcounter{editorc}{0}
\setcounter{savededitorc}{0}
\setcounter{foreword}{0}
\setcounter{savedforeword}{0}
\setcounter{holder}{0}
\setcounter{savedholder}{0}
\setcounter{introduction}{0}
\setcounter{savedintroduction}{0}
\setcounter{namea}{0}
\setcounter{savednamea}{0}
\setcounter{nameb}{0}
\setcounter{savednameb}{0}
\setcounter{namec}{0}
\setcounter{savednamec}{0}
\setcounter{translator}{0}
\setcounter{savedtranslator}{0}
\setcounter{shortauthor}{0}
\setcounter{savedshortauthor}{0}
\setcounter{shorteditor}{0}
\setcounter{savedshorteditor}{0}
\setcounter{supervisor}{0}
\setcounter{savedsupervisor}{0}
\setcounter{labelname}{0}
\setcounter{savedlabelname}{0}
\setcounter{institution}{0}
\setcounter{savedinstitution}{0}
\setcounter{lista}{0}
\setcounter{savedlista}{0}
\setcounter{listb}{0}
\setcounter{savedlistb}{0}
\setcounter{listc}{0}
\setcounter{savedlistc}{0}
\setcounter{listd}{0}
\setcounter{savedlistd}{0}
\setcounter{liste}{0}
\setcounter{savedliste}{0}
\setcounter{listf}{0}
\setcounter{savedlistf}{0}
\setcounter{location}{0}
\setcounter{savedlocation}{0}
\setcounter{organization}{0}
\setcounter{savedorganization}{0}
\setcounter{origlocation}{0}
\setcounter{savedoriglocation}{0}
\setcounter{origpublisher}{0}
\setcounter{savedorigpublisher}{0}
\setcounter{publisher}{0}
\setcounter{savedpublisher}{0}
\setcounter{language}{0}
\setcounter{savedlanguage}{0}
\setcounter{origlanguage}{0}
\setcounter{savedoriglanguage}{0}
\setcounter{pageref}{0}
\setcounter{savedpageref}{0}
\setcounter{textcitecount}{0}
\setcounter{textcitetotal}{0}
\setcounter{textcitemaxnames}{0}
\setcounter{biburlbigbreakpenalty}{100}
\setcounter{biburlbreakpenalty}{200}
\setcounter{biburlnumpenalty}{0}
\setcounter{biburlucpenalty}{0}
\setcounter{biburllcpenalty}{0}
\setcounter{smartand}{1}
\setcounter{parentequation}{0}
\setcounter{caption@flags}{2}
\setcounter{continuedfloat}{0}
\setcounter{KVtest}{0}
\setcounter{subfigure}{0}
\setcounter{subfigure@save}{0}
\setcounter{lofdepth}{1}
\setcounter{subtable}{0}
\setcounter{subtable@save}{0}
\setcounter{lotdepth}{1}
\setcounter{FancyVerbLine}{0}
\setcounter{lstnumber}{1}
\setcounter{AlgoLine}{0}
\setcounter{algocfline}{2}
\setcounter{algocfproc}{2}
\setcounter{algocf}{2}
\setcounter{float@type}{8}
\setcounter{section@level}{1}
\setcounter{lstlisting}{0}
}
