\boolfalse {citerequest}\boolfalse {citetracker}\boolfalse {pagetracker}\boolfalse {backtracker}\relax 
\babel@toc {czech}{}
\defcounter {refsection}{0}\relax 
\addvspace {10\p@ }
\defcounter {refsection}{0}\relax 
\contentsline {figure}{\numberline {1.1}{\ignorespaces Technologický pohled na dobývání znalostí z~dat. Zdroj: \cite {Fayyad}\relax }}{18}{figure.caption.8}%
\defcounter {refsection}{0}\relax 
\contentsline {figure}{\numberline {1.2}{\ignorespaces Manažerský pohled na dobývání znalostí z~dat. Zdroj: \cite {Berka}\relax }}{18}{figure.caption.9}%
\defcounter {refsection}{0}\relax 
\contentsline {figure}{\numberline {1.3}{\ignorespaces Zodpovědnosti jednotlivých rolí z~manažerského pohledu. Zdroj: \cite {Anand}\relax }}{20}{figure.caption.10}%
\defcounter {refsection}{0}\relax 
\addvspace {10\p@ }
\defcounter {refsection}{0}\relax 
\addvspace {10\p@ }
\defcounter {refsection}{0}\relax 
\contentsline {figure}{\numberline {3.1}{\ignorespaces Grafické prostředí RapidMiner Studio\relax }}{33}{figure.caption.17}%
\defcounter {refsection}{0}\relax 
\contentsline {figure}{\numberline {3.2}{\ignorespaces Přehled skupin operátorů poskytovaných RapidMinerem\relax }}{34}{figure.caption.18}%
\defcounter {refsection}{0}\relax 
\contentsline {figure}{\numberline {3.3}{\ignorespaces Stav projektu před a po inicializaci\relax }}{36}{figure.caption.19}%
\defcounter {refsection}{0}\relax 
\contentsline {subfigure}{\numberline {(a)}{\ignorespaces {Před}}}{36}{subfigure.3.1}%
\defcounter {refsection}{0}\relax 
\contentsline {subfigure}{\numberline {(b)}{\ignorespaces {Po}}}{36}{subfigure.3.2}%
\defcounter {refsection}{0}\relax 
\contentsline {figure}{\numberline {3.4}{\ignorespaces Přehled skupin operátorů poskytovaných RapidMinerem\relax }}{37}{figure.caption.20}%
\defcounter {refsection}{0}\relax 
\contentsline {figure}{\numberline {3.5}{\ignorespaces Vztah mezi \textit {ExampleTable} a \textit {ExampleSet}. Zdroj: \cite {RapidminerHowToExtend}\relax }}{40}{figure.caption.21}%
\defcounter {refsection}{0}\relax 
\contentsline {figure}{\numberline {3.6}{\ignorespaces Více \textit {ExampleSet}ů nad jednou \textit {ExampleTable}. Zdroj: \cite {RapidminerHowToExtend}\relax }}{40}{figure.caption.22}%
\defcounter {refsection}{0}\relax 
\addvspace {10\p@ }
\defcounter {refsection}{0}\relax 
\contentsline {figure}{\numberline {4.1}{\ignorespaces \centering \mbox {Třída InputDataTable}\relax }}{44}{figure.caption.23}%
\defcounter {refsection}{0}\relax 
\contentsline {figure}{\numberline {4.2}{\ignorespaces \centering Třída Category\relax }}{44}{figure.caption.24}%
\defcounter {refsection}{0}\relax 
\contentsline {figure}{\numberline {4.3}{\ignorespaces \centering Třída Combination\relax }}{45}{figure.caption.25}%
\defcounter {refsection}{0}\relax 
\contentsline {figure}{\numberline {4.4}{\ignorespaces \centering Třída AssociationRule\relax }}{46}{figure.caption.26}%
\defcounter {refsection}{0}\relax 
\contentsline {figure}{\numberline {4.5}{\ignorespaces \centering Třída AssociationRule\relax }}{46}{figure.caption.27}%
\defcounter {refsection}{0}\relax 
\contentsline {figure}{\numberline {4.6}{\ignorespaces \centering Třída Interval\relax }}{47}{figure.caption.28}%
\defcounter {refsection}{0}\relax 
\contentsline {figure}{\numberline {4.7}{\ignorespaces \centering Třída ResultCategory\relax }}{47}{figure.caption.29}%
\defcounter {refsection}{0}\relax 
\contentsline {figure}{\numberline {4.8}{\ignorespaces \centering ValidationResult\relax }}{48}{figure.caption.30}%
\defcounter {refsection}{0}\relax 
\contentsline {figure}{\numberline {4.9}{\ignorespaces \centering Třída KnowledgeExplorer\relax }}{49}{figure.caption.31}%
\defcounter {refsection}{0}\relax 
\contentsline {figure}{\numberline {4.10}{\ignorespaces Parametry operátoru Knowledge Explorer\relax }}{51}{figure.caption.34}%
\defcounter {refsection}{0}\relax 
\contentsline {figure}{\numberline {4.11}{\ignorespaces Ukázka upozornění při nesplnění vstupních podmínek operátoru\relax }}{56}{figure.caption.36}%
\defcounter {refsection}{0}\relax 
\contentsline {figure}{\numberline {4.12}{\ignorespaces Výstup operátoru Knowledge Explorer ve formě tabulky\relax }}{56}{figure.caption.37}%
\defcounter {refsection}{0}\relax 
\contentsline {figure}{\numberline {4.13}{\ignorespaces Výstup operátoru Knowledge Explorer v~textové podobě spolu s~výsledky křížové validace\relax }}{57}{figure.caption.38}%
\defcounter {refsection}{0}\relax 
\contentsline {figure}{\numberline {4.14}{\ignorespaces \centering Třída KEXDiscretization\relax }}{58}{figure.caption.39}%
\defcounter {refsection}{0}\relax 
\contentsline {figure}{\numberline {4.15}{\ignorespaces Třída Functions\relax }}{62}{figure.caption.40}%
\defcounter {refsection}{0}\relax 
\contentsline {figure}{\numberline {4.16}{\ignorespaces Testovací třídy\relax }}{64}{figure.caption.41}%
\defcounter {refsection}{0}\relax 
\contentsline {subfigure}{\numberline {(a)}{\ignorespaces {Třída OperatorTest}}}{64}{subfigure.16.1}%
\defcounter {refsection}{0}\relax 
\contentsline {subfigure}{\numberline {(b)}{\ignorespaces {Třída NumericalTests}}}{64}{subfigure.16.2}%
\defcounter {refsection}{0}\relax 
\addvspace {10\p@ }
\defcounter {refsection}{0}\relax 
\contentsline {figure}{\numberline {5.1}{\ignorespaces Výstup operátoru Knowledge Explorer\relax }}{66}{figure.caption.42}%
\defcounter {refsection}{0}\relax 
\contentsline {figure}{\numberline {5.2}{\ignorespaces Výstup rozšíření KEXTask v~prostředí LISP Miner\relax }}{67}{figure.caption.43}%
\defcounter {refsection}{0}\relax 
\contentsline {figure}{\numberline {5.3}{\ignorespaces Výsledek JUnit testů v~prostředí Eclipse\relax }}{67}{figure.caption.44}%
\defcounter {refsection}{0}\relax 
\contentsline {figure}{\numberline {5.4}{\ignorespaces Pravidlo znalostní báze nesplňující podmínku $f_{min}$\relax }}{70}{figure.caption.46}%
\defcounter {refsection}{0}\relax 
\contentsline {figure}{\numberline {5.5}{\ignorespaces Ukázka testovacího procesu v~RapidMineru\relax }}{72}{figure.caption.47}%
\defcounter {refsection}{0}\relax 
\contentsline {figure}{\numberline {5.6}{\ignorespaces Závislost délky běhu algoritmu na maximalní délce antecedentu\relax }}{74}{figure.caption.49}%
\defcounter {refsection}{0}\relax 
\contentsline {figure}{\numberline {5.7}{\ignorespaces Závislost přesnosti klasifikace na maximalní délce antecedentu\relax }}{75}{figure.caption.50}%
\defcounter {refsection}{0}\relax 
\contentsline {figure}{\numberline {5.8}{\ignorespaces Závislost délky běhu algoritmu na minimální frekvenci antecedentu\relax }}{76}{figure.caption.51}%
\defcounter {refsection}{0}\relax 
\contentsline {figure}{\numberline {5.9}{\ignorespaces Závislost přesnosti klasifikace na minimální frekvenci antecedentu\relax }}{76}{figure.caption.52}%
\defcounter {refsection}{0}\relax 
\contentsline {figure}{\numberline {5.10}{\ignorespaces Závislost délky běhu algoritmu na minimální validitě pravidla\relax }}{77}{figure.caption.53}%
\defcounter {refsection}{0}\relax 
\contentsline {figure}{\numberline {5.11}{\ignorespaces Závislost přesnosti klasifikace na minimální validitě pravidla\relax }}{77}{figure.caption.54}%
\defcounter {refsection}{0}\relax 
\contentsline {figure}{\numberline {5.12}{\ignorespaces Závislost délky běhu algoritmu na parametru $\alpha $\relax }}{78}{figure.caption.55}%
\defcounter {refsection}{0}\relax 
\contentsline {figure}{\numberline {5.13}{\ignorespaces Závislost přesnosti klasifikace na parametru $\alpha $\relax }}{79}{figure.caption.56}%
\defcounter {refsection}{0}\relax 
\contentsline {figure}{\numberline {5.14}{\ignorespaces Porovnání operátorů KEX Discretization a Discretize by Size\relax }}{80}{figure.caption.57}%
\defcounter {refsection}{0}\relax 
\contentsline {figure}{\numberline {5.15}{\ignorespaces Porovnání operátorů KEX Discretization a Discretize by Binning\relax }}{80}{figure.caption.58}%
\defcounter {refsection}{0}\relax 
\contentsline {figure}{\numberline {5.16}{\ignorespaces Porovnání operátorů KEX Discretization a Discretize by Frequency\relax }}{81}{figure.caption.59}%
\defcounter {refsection}{0}\relax 
\contentsline {figure}{\numberline {5.17}{\ignorespaces Vliv parametru $\delta $ na přesnost klasifikace a procento \textit {jistých} ohodnocení\relax }}{82}{figure.caption.61}%
\defcounter {refsection}{0}\relax 
\contentsline {figure}{\numberline {5.18}{\ignorespaces Vliv parametru $\delta $ na přesnost klasifikace a procento \textit {jistých} ohodnocení\relax }}{82}{figure.caption.62}%
\defcounter {refsection}{0}\relax 
\addvspace {10\p@ }
\defcounter {refsection}{0}\relax 
\addvspace {10\p@ }
