\relax 
\providecommand\hyper@newdestlabel[2]{}
\providecommand\HyperFirstAtBeginDocument{\AtBeginDocument}
\HyperFirstAtBeginDocument{\ifx\hyper@anchor\@undefined
\global\let\oldcontentsline\contentsline
\gdef\contentsline#1#2#3#4{\oldcontentsline{#1}{#2}{#3}}
\global\let\oldnewlabel\newlabel
\gdef\newlabel#1#2{\newlabelxx{#1}#2}
\gdef\newlabelxx#1#2#3#4#5#6{\oldnewlabel{#1}{{#2}{#3}}}
\AtEndDocument{\ifx\hyper@anchor\@undefined
\let\contentsline\oldcontentsline
\let\newlabel\oldnewlabel
\fi}
\fi}
\global\let\hyper@last\relax 
\gdef\HyperFirstAtBeginDocument#1{#1}
\providecommand\HyField@AuxAddToFields[1]{}
\providecommand\HyField@AuxAddToCoFields[2]{}
\abx@aux@refcontext{none/global//global/global}
\bbl@cs{beforestart}
\catcode `"\active 
\catcode `-\active 
\@input{zacatek.aux}
\providecommand \oddpage@label [2]{}
\@writefile{toc}{\boolfalse {citerequest}\boolfalse {citetracker}\boolfalse {pagetracker}\boolfalse {backtracker}\relax }
\@writefile{lof}{\boolfalse {citerequest}\boolfalse {citetracker}\boolfalse {pagetracker}\boolfalse {backtracker}\relax }
\@writefile{lot}{\boolfalse {citerequest}\boolfalse {citetracker}\boolfalse {pagetracker}\boolfalse {backtracker}\relax }
\babel@aux{czech}{}
\@input{zkratky.aux}
\@input{uvod.aux}
\abx@aux@cite{Witten}
\abx@aux@segm{0}{0}{Witten}
\abx@aux@cite{dataminingindustries}
\abx@aux@segm{0}{0}{dataminingindustries}
\abx@aux@cite{tmtoolstodominate}
\abx@aux@segm{0}{0}{tmtoolstodominate}
\abx@aux@cite{dmtop10}
\abx@aux@segm{0}{0}{dmtop10}
\abx@aux@cite{KEX}
\abx@aux@segm{0}{0}{KEX}
\@input{kap01.aux}
\abx@aux@cite{britannica}
\abx@aux@segm{0}{0}{britannica}
\abx@aux@cite{Liska}
\abx@aux@segm{0}{0}{Liska}
\abx@aux@cite{Fayyad}
\abx@aux@segm{0}{0}{Fayyad}
\abx@aux@cite{Berka}
\abx@aux@segm{0}{0}{Berka}
\abx@aux@cite{Fayyad}
\abx@aux@segm{0}{0}{Fayyad}
\abx@aux@cite{Witten}
\abx@aux@segm{0}{0}{Witten}
\abx@aux@cite{Liska}
\abx@aux@segm{0}{0}{Liska}
\abx@aux@cite{Berka}
\abx@aux@segm{0}{0}{Berka}
\abx@aux@cite{Fayyad}
\abx@aux@segm{0}{0}{Fayyad}
\abx@aux@cite{Fayyad}
\abx@aux@segm{0}{0}{Fayyad}
\abx@aux@cite{Fayyad}
\abx@aux@segm{0}{0}{Fayyad}
\abx@aux@cite{Anand}
\abx@aux@segm{0}{0}{Anand}
\abx@aux@cite{Berka}
\abx@aux@segm{0}{0}{Berka}
\abx@aux@cite{Berka}
\abx@aux@segm{0}{0}{Berka}
\abx@aux@cite{Anand}
\abx@aux@segm{0}{0}{Anand}
\abx@aux@cite{Liska}
\abx@aux@segm{0}{0}{Liska}
\abx@aux@cite{Liska}
\abx@aux@segm{0}{0}{Liska}
\abx@aux@cite{Anand}
\abx@aux@segm{0}{0}{Anand}
\abx@aux@cite{Anand}
\abx@aux@segm{0}{0}{Anand}
\abx@aux@cite{CRISP}
\abx@aux@segm{0}{0}{CRISP}
\abx@aux@cite{RauchSimunek}
\abx@aux@segm{0}{0}{RauchSimunek}
\abx@aux@cite{CRISP}
\abx@aux@segm{0}{0}{CRISP}
\abx@aux@cite{Han}
\abx@aux@segm{0}{0}{Han}
\abx@aux@cite{Han}
\abx@aux@segm{0}{0}{Han}
\@input{kap02.aux}
\abx@aux@cite{Rapidminer}
\abx@aux@segm{0}{0}{Rapidminer}
\abx@aux@cite{KEX}
\abx@aux@segm{0}{0}{KEX}
\abx@aux@cite{KEX}
\abx@aux@segm{0}{0}{KEX}
\abx@aux@cite{KEX}
\abx@aux@segm{0}{0}{KEX}
\abx@aux@cite{chisq}
\abx@aux@segm{0}{0}{chisq}
\abx@aux@cite{KEX}
\abx@aux@segm{0}{0}{KEX}
\abx@aux@cite{KEX}
\abx@aux@segm{0}{0}{KEX}
\abx@aux@cite{Han}
\abx@aux@segm{0}{0}{Han}
\@input{kap03.aux}
\abx@aux@cite{RapidminerDortmund}
\abx@aux@segm{0}{0}{RapidminerDortmund}
\abx@aux@cite{RapidI}
\abx@aux@segm{0}{0}{RapidI}
\abx@aux@cite{rapidminerusers}
\abx@aux@segm{0}{0}{rapidminerusers}
\abx@aux@cite{RapidminerVersions}
\abx@aux@segm{0}{0}{RapidminerVersions}
\abx@aux@cite{agpl3}
\abx@aux@segm{0}{0}{agpl3}
\abx@aux@cite{gradle}
\abx@aux@segm{0}{0}{gradle}
\abx@aux@cite{Rapidminer7extend}
\abx@aux@segm{0}{0}{Rapidminer7extend}
\abx@aux@cite{gradle5}
\abx@aux@segm{0}{0}{gradle5}
\abx@aux@cite{Rapidminer7extend}
\abx@aux@segm{0}{0}{Rapidminer7extend}
\abx@aux@cite{RapidminerHowToExtend}
\abx@aux@segm{0}{0}{RapidminerHowToExtend}
\abx@aux@cite{RapidminerHowToExtend}
\abx@aux@segm{0}{0}{RapidminerHowToExtend}
\abx@aux@cite{RapidminerHowToExtend}
\abx@aux@segm{0}{0}{RapidminerHowToExtend}
\abx@aux@cite{RapidminerHowToExtend}
\abx@aux@segm{0}{0}{RapidminerHowToExtend}
\abx@aux@cite{RapidminerHowToExtend}
\abx@aux@segm{0}{0}{RapidminerHowToExtend}
\abx@aux@cite{RapidminerHowToExtend}
\abx@aux@segm{0}{0}{RapidminerHowToExtend}
\abx@aux@cite{cerny}
\abx@aux@segm{0}{0}{cerny}
\abx@aux@cite{dortmundDoc}
\abx@aux@segm{0}{0}{dortmundDoc}
\abx@aux@cite{RapidminerHowToExtend}
\abx@aux@segm{0}{0}{RapidminerHowToExtend}
\@input{kap04.aux}
\abx@aux@cite{junit5}
\abx@aux@segm{0}{0}{junit5}
\@input{kap05.aux}
\abx@aux@cite{KEX}
\abx@aux@segm{0}{0}{KEX}
\abx@aux@cite{jprofiler}
\abx@aux@segm{0}{0}{jprofiler}
\@input{zaver.aux}
\@input{literatura.aux}
\@input{app01.aux}
\@input{app02.aux}
\abx@aux@refcontextdefaultsdone
\abx@aux@defaultrefcontext{0}{Witten}{none/global//global/global}
\abx@aux@defaultrefcontext{0}{dataminingindustries}{none/global//global/global}
\abx@aux@defaultrefcontext{0}{tmtoolstodominate}{none/global//global/global}
\abx@aux@defaultrefcontext{0}{dmtop10}{none/global//global/global}
\abx@aux@defaultrefcontext{0}{KEX}{none/global//global/global}
\abx@aux@defaultrefcontext{0}{britannica}{none/global//global/global}
\abx@aux@defaultrefcontext{0}{Liska}{none/global//global/global}
\abx@aux@defaultrefcontext{0}{Fayyad}{none/global//global/global}
\abx@aux@defaultrefcontext{0}{Berka}{none/global//global/global}
\abx@aux@defaultrefcontext{0}{Anand}{none/global//global/global}
\abx@aux@defaultrefcontext{0}{CRISP}{none/global//global/global}
\abx@aux@defaultrefcontext{0}{RauchSimunek}{none/global//global/global}
\abx@aux@defaultrefcontext{0}{Han}{none/global//global/global}
\abx@aux@defaultrefcontext{0}{Rapidminer}{none/global//global/global}
\abx@aux@defaultrefcontext{0}{chisq}{none/global//global/global}
\abx@aux@defaultrefcontext{0}{RapidminerDortmund}{none/global//global/global}
\abx@aux@defaultrefcontext{0}{RapidI}{none/global//global/global}
\abx@aux@defaultrefcontext{0}{rapidminerusers}{none/global//global/global}
\abx@aux@defaultrefcontext{0}{RapidminerVersions}{none/global//global/global}
\abx@aux@defaultrefcontext{0}{agpl3}{none/global//global/global}
\abx@aux@defaultrefcontext{0}{gradle}{none/global//global/global}
\abx@aux@defaultrefcontext{0}{Rapidminer7extend}{none/global//global/global}
\abx@aux@defaultrefcontext{0}{gradle5}{none/global//global/global}
\abx@aux@defaultrefcontext{0}{RapidminerHowToExtend}{none/global//global/global}
\abx@aux@defaultrefcontext{0}{cerny}{none/global//global/global}
\abx@aux@defaultrefcontext{0}{dortmundDoc}{none/global//global/global}
\abx@aux@defaultrefcontext{0}{junit5}{none/global//global/global}
\abx@aux@defaultrefcontext{0}{jprofiler}{none/global//global/global}
