class	head_shape	body_shape	smiling	holding	jacket	has_tie
1	round	round	yes	sword	red	no
1	round	round	yes	sword	yellow	yes
1	round	round	yes	sword	yellow	no
1	round	round	yes	sword	green	yes
1	round	round	yes	sword	blue	yes
1	round	round	yes	ballon	red	yes
1	round	round	yes	ballon	yellow	no
1	round	round	yes	ballon	blue	no
1	round	round	no	sword	yellow	no
1	round	round	no	sword	blue	no
0	round	round	no	ballon	yellow	no
0	round	round	no	ballon	blue	yes
0	round	round	no	ballon	blue	no
1	round	round	no	flag	red	yes
0	round	round	no	flag	red	no
0	round	round	no	flag	green	yes
0	round	round	no	flag	green	no
0	round	square	yes	sword	green	yes
0	round	square	yes	ballon	yellow	yes
0	round	square	yes	ballon	yellow	no
0	round	square	yes	ballon	green	yes
0	round	square	yes	flag	red	yes
0	round	square	yes	flag	red	no
0	round	square	yes	flag	yellow	yes
0	round	square	yes	flag	yellow	no
0	round	square	yes	flag	green	no
0	round	square	yes	flag	blue	yes
0	round	square	no	sword	green	yes
0	round	square	no	sword	blue	no
0	round	square	no	ballon	red	yes
1	round	square	no	ballon	yellow	yes
0	round	square	no	ballon	yellow	no
0	round	square	no	flag	red	yes
0	round	square	no	flag	yellow	yes
0	round	square	no	flag	yellow	no
0	round	octagon	yes	sword	yellow	yes
1	round	octagon	yes	sword	blue	yes
0	round	octagon	yes	ballon	green	no
0	round	octagon	yes	ballon	blue	yes
0	round	octagon	yes	flag	red	yes
0	round	octagon	yes	flag	green	yes
1	round	octagon	no	sword	red	yes
0	round	octagon	no	sword	red	no
0	round	octagon	no	sword	yellow	yes
0	round	octagon	no	sword	blue	no
0	round	octagon	no	ballon	green	no
0	round	octagon	no	ballon	blue	no
1	round	octagon	no	flag	blue	yes
1	square	round	yes	sword	red	yes
0	square	round	yes	sword	red	no
0	square	round	yes	sword	blue	yes
0	square	round	yes	sword	blue	no
0	square	round	yes	ballon	red	yes
0	square	round	yes	ballon	red	no
0	square	round	yes	flag	yellow	no
0	square	round	yes	flag	green	no
0	square	round	yes	flag	blue	yes
0	square	round	no	sword	yellow	no
0	square	round	no	ballon	blue	yes
0	square	round	no	flag	red	no
0	square	square	yes	sword	green	no
1	square	square	yes	sword	blue	no
1	square	square	yes	ballon	red	no
1	square	square	yes	ballon	yellow	yes
1	square	square	yes	flag	red	yes
1	square	square	yes	flag	yellow	no
1	square	square	yes	flag	green	yes
1	square	square	yes	flag	green	no
1	square	square	yes	flag	blue	no
1	square	square	no	sword	yellow	no
1	square	square	no	ballon	red	no
1	square	square	no	ballon	green	yes
1	square	square	no	ballon	green	no
1	square	square	no	flag	blue	yes
1	square	octagon	yes	sword	green	yes
1	square	octagon	yes	ballon	red	yes
1	square	octagon	yes	ballon	yellow	yes
1	square	octagon	yes	ballon	yellow	no
0	square	octagon	yes	ballon	green	no
1	square	octagon	yes	flag	green	yes
0	square	octagon	no	sword	red	no
0	square	octagon	no	sword	yellow	no
0	square	octagon	no	sword	blue	yes
1	square	octagon	no	ballon	green	yes
1	square	octagon	no	ballon	blue	no
0	square	octagon	no	flag	red	yes
0	square	octagon	no	flag	yellow	yes
1	square	octagon	no	flag	blue	no
1	octagon	round	yes	sword	red	yes
1	octagon	round	yes	sword	yellow	yes
0	octagon	round	yes	sword	green	yes
0	octagon	round	yes	ballon	blue	no
1	octagon	round	yes	flag	red	no
0	octagon	round	yes	flag	blue	no
0	octagon	round	no	sword	yellow	yes
0	octagon	round	no	ballon	green	no
0	octagon	round	no	ballon	blue	no
1	octagon	round	no	flag	red	yes
0	octagon	square	yes	sword	yellow	no
1	octagon	square	yes	sword	blue	yes
0	octagon	square	yes	ballon	green	yes
1	octagon	square	yes	flag	red	no
1	octagon	square	no	sword	yellow	no
0	octagon	square	no	sword	green	no
1	octagon	square	no	ballon	red	no
0	octagon	square	no	flag	red	yes
0	octagon	square	no	flag	green	no
1	octagon	square	no	flag	blue	yes
1	octagon	octagon	yes	sword	green	no
1	octagon	octagon	yes	sword	blue	yes
1	octagon	octagon	yes	ballon	blue	no
1	octagon	octagon	yes	flag	red	yes
1	octagon	octagon	yes	flag	yellow	yes
1	octagon	octagon	yes	flag	yellow	no
1	octagon	octagon	yes	flag	blue	yes
1	octagon	octagon	no	sword	red	yes
1	octagon	octagon	no	sword	red	no
1	octagon	octagon	no	ballon	yellow	no
1	octagon	octagon	no	ballon	green	no
1	octagon	octagon	no	flag	red	yes
1	octagon	octagon	no	flag	green	no
1	octagon	octagon	no	flag	blue	no
