alpha	acc
1	0.62589
0.99	0.987686246
0.98	0.987196848
0.97	0.987196848
0.96	0.988057129
0.95	0.98756617
0.94	0.987809383
0.93	0.987075332
0.92	0.988674135
0.91	0.986582964
0.9	0.987813885
0.89	0.987443063
0.88	0.987564639
0.87	0.987443063
0.86	0.987073741
0.85	0.987319956
0.84	0.988181706
0.83	0.987935492
0.82	0.987319956
0.81	0.987689277
0.8	0.987444609
0.79	0.988795863
0.78	0.987318394
0.77	0.987935492
0.76	0.987318394
0.75	0.987934006
0.74	0.987936977
0.73	0.988304813
0.72	0.988058599
0.71	0.988671346
0.7	0.987813885
0.69	0.988181706
0.68	0.987318394
0.67	0.988306253
0.66	0.988058599
0.65	0.988306253
0.64	0.987935492
0.63	0.987690793
0.62	0.988426496
0.61	0.988306253
0.6	0.988426496
0.59	0.988672741
0.58	0.988306253
0.57	0.987935492
0.56	0.989042108
0.55	0.988181706
0.54	0.988183161
0.53	0.988423645
0.52	0.988183161
0.51	0.988306253
0.5	0.988060069
0.49	0.987934006
0.48	0.988060069
0.47	0.987690793
0.46	0.987567701
0.45	0.988549618
0.44	0.987813885
0.43	0.987935492
0.42	0.987321516
0.41	0.988551028
0.4	0.988304813
0.39	0.987935492
0.38	0.987567701
0.37	0.988057129
0.36	0.988552437
0.35	0.987934006
0.34	0.987813885
0.33	0.987813885
0.32	0.988675529
0.31	0.98756617
0.3	0.987936977
0.29	0.987444609
0.28	0.987932521
0.27	0.987812385
0.26	0.987564639
0.25	0.988058599
0.24	0.987689277
0.23	0.988552437
0.22	0.988551028
0.21	0.988425071
0.2	0.988798621
0.19	0.987690793
0.18	0.987443063
0.17	0.988178796
0.16	0.988306253
0.15	0.987689277
0.14	0.987318394
0.13	0.988057129
0.12	0.987936977
0.11	0.988181706
0.1	0.987932521
0.09	0.988060069
0.08	0.98756617
0.07	0.988548208
0.06	0.988304813
0.05	0.988426496
0.04	0.98756617
0.03	0.987690793
0.02	0.987567701
0.01	0.98756617
0	
