bandwidth	certain	acc
0	1	0.852986217
0.02	0.995405819	0.853846154
0.04	0.995405819	0.855384615
0.06	0.986217458	0.833850932
0.08	0.987748851	0.855813953
0.1	0.984686064	0.864696734
0.12	0.980091884	0.8453125
0.14	0.961715161	0.855095541
0.16	0.954058193	0.866773676
0.18	0.963246554	0.858505564
0.2	0.963246554	0.864864865
0.22	0.952526799	0.872990354
0.24	0.949464012	0.869354839
0.26	0.95712098	0.8656
0.28	0.938744257	0.88091354
0.3	0.943338438	0.875
0.32	0.93568147	0.862520458
0.34	0.918836141	0.883333333
0.36	0.932618683	0.881773399
0.38	0.91424196	0.884422111
0.4	0.915773354	0.886287625
0.42	0.874425727	0.88441331
0.44	0.860643185	0.891459075
0.46	0.799387443	0.879310345
0.48	0.788667688	0.893203883
