bandwidth	certain	acc
0	1	0.987198424
0.02	0.999753816	0.986702783
0.04	0.999876908	0.987935492
0.06	0.999876908	0.987196848
0.08	0.99938454	0.987683212
0.1	0.999753816	0.986702783
0.12	0.999507632	0.987561576
0.14	0.999630724	0.987563108
0.16	0.999507632	0.987438424
0.18	0.998645987	0.988413657
0.2	0.998645987	0.988536916
0.22	0.998645987	0.988536916
0.24	0.998892171	0.988539741
0.26	0.998645987	0.988167139
0.28	0.998892171	0.987923598
0.3	0.998030527	0.988529847
0.32	0.998030527	0.988159842
0.34	0.998153619	0.988654581
0.36	0.997291974	0.988891632
0.38	0.996922698	0.989628349
0.4	0.997661251	0.988648982
0.42	0.99643033	0.989252625
0.44	0.996553422	0.989995059
0.46	0.995568685	0.990108803
0.48	0.995076317	0.990969817
